half-hipped/68254228.png | should be 4.0 (half-hipped) -> predicted as 0.0 (complex)
skillion/72901669.png | should be 7.0 (skillion) -> predicted as 3.0 (gabled)
half-hipped/74750002.png | should be 4.0 (half-hipped) -> predicted as 3.0 (gabled)
half-hipped/74750041.png | should be 4.0 (half-hipped) -> predicted as 3.0 (gabled)
skillion/74954548.png | should be 7.0 (skillion) -> predicted as 2.0 (flat) - FIXED
skillion/74980742.png | should be 7.0 (skillion) -> predicted as 2.0 (flat) - FIXED
half-hipped/75142807.png | should be 4.0 (half-hipped) -> predicted as 5.0 (hipped)
complex/76580531.png | should be 0.0 (complex) -> predicted as 4.0 (half-hipped)
skillion/77258156.png | should be 7.0 (skillion) -> predicted as 1.0 (complex_flat) - SKILLION COMPLEX -HAHAHA - Keep it as skillion
pyramidal/77404712.png | should be 6.0 (pyramidal) -> predicted as 5.0 (hipped)
complex/79398763.png | should be 0.0 (complex) -> predicted as 4.0 (half-hipped)
complex/80574406.png | should be 0.0 (complex) -> predicted as 1.0 (complex_flat)
pyramidal/80720701.png | should be 6.0 (pyramidal) -> predicted as 5.0 (hipped)
hipped/82411615.png | should be 5.0 (hipped) -> predicted as 4.0 (half-hipped)
half-hipped/82454127.png | should be 4.0 (half-hipped) -> predicted as 5.0 (hipped)
half-hipped/83122773.png | should be 4.0 (half-hipped) -> predicted as 5.0 (hipped)
hipped/83927528.png | should be 5.0 (hipped) -> predicted as 4.0 (half-hipped)
hipped/85071154.png | should be 5.0 (hipped) -> predicted as 4.0 (half-hipped)
complex/86152756.png | should be 0.0 (complex) -> predicted as 5.0 (hipped)
skillion/87769720.png | should be 7.0 (skillion) -> predicted as 0.0 (complex)
skillion/91883692.png | should be 7.0 (skillion) -> predicted as 2.0 (flat)
half-hipped/95733313.png | should be 4.0 (half-hipped) -> predicted as 5.0 (hipped)
complex/95881920.png | should be 0.0 (complex) -> predicted as 7.0 (skillion)
hipped/97164571.png | should be 5.0 (hipped) -> predicted as 4.0 (half-hipped)
hipped/97164586.png | should be 5.0 (hipped) -> predicted as 4.0 (half-hipped)
hipped/97173278.png | should be 5.0 (hipped) -> predicted as 6.0 (pyramidal)
skillion/99470886.png | should be 7.0 (skillion) -> predicted as 0.0 (complex)
flat/99470911.png | should be 2.0 (flat) -> predicted as 7.0 (skillion)
complex/99491795.png | should be 0.0 (complex) -> predicted as 5.0 (hipped)
complex/100595908.png | should be 0.0 (complex) -> predicted as 4.0 (half-hipped)
skillion/229007576.png | should be 7.0 (skillion) -> predicted as 1.0 (complex_flat)
half-hipped/229833853.png | should be 4.0 (half-hipped) -> predicted as 3.0 (gabled)
hipped/245626945.png | should be 5.0 (hipped) -> predicted as 6.0 (pyramidal)
complex/313624896.png | should be 0.0 (complex) -> predicted as 1.0 (complex_flat)
complex_flat/314500412.png | should be 1.0 (complex_flat) -> predicted as 0.0 (complex)
complex/315140686.png | should be 0.0 (complex) -> predicted as 1.0 (complex_flat)
gabled/316962873.png | should be 3.0 (gabled) -> predicted as 0.0 (complex)
skillion/325830282.png | should be 7.0 (skillion) -> predicted as 2.0 (flat)
complex/328958295.png | should be 0.0 (complex) -> predicted as 3.0 (gabled)
gabled/330494503.png | should be 3.0 (gabled) -> predicted as 2.0 (flat)
gabled/332753982.png | should be 3.0 (gabled) -> predicted as 5.0 (hipped)
gabled/333034677.png | should be 3.0 (gabled) -> predicted as 0.0 (complex)
gabled/335295799.png | should be 3.0 (gabled) -> predicted as 0.0 (complex)
gabled/335295801.png | should be 3.0 (gabled) -> predicted as 0.0 (complex)
complex_flat/335419852.png | should be 1.0 (complex_flat) -> predicted as 2.0 (flat)
flat/335419983.png | should be 2.0 (flat) -> predicted as 0.0 (complex)
complex_flat/336847125.png | should be 1.0 (complex_flat) -> predicted as 2.0 (flat)
gabled/336847138.png | should be 3.0 (gabled) -> predicted as 4.0 (half-hipped)
complex/336847220.png | should be 0.0 (complex) -> predicted as 2.0 (flat)
complex/336861709.png | should be 0.0 (complex) -> predicted as 2.0 (flat)
flat/336861722.png | should be 2.0 (flat) -> predicted as 0.0 (complex)
flat/336861770.png | should be 2.0 (flat) -> predicted as 1.0 (complex_flat)
complex/338046388.png | should be 0.0 (complex) -> predicted as 2.0 (flat)
gabled/338126385.png | should be 3.0 (gabled) -> predicted as 0.0 (complex)
complex_flat/339324842.png | should be 1.0 (complex_flat) -> predicted as 2.0 (flat)
flat/339324843.png | should be 2.0 (flat) -> predicted as 7.0 (skillion)
complex_flat/339734656.png | should be 1.0 (complex_flat) -> predicted as 0.0 (complex)
gabled/341925300.png | should be 3.0 (gabled) -> predicted as 5.0 (hipped)
complex/343453498.png | should be 0.0 (complex) -> predicted as 2.0 (flat)
flat/345038831.png | should be 2.0 (flat) -> predicted as 0.0 (complex)
complex/345584502.png | should be 0.0 (complex) -> predicted as 3.0 (gabled)
complex_flat/345694389.png | should be 1.0 (complex_flat) -> predicted as 2.0 (flat)
complex_flat/345710534.png | should be 1.0 (complex_flat) -> predicted as 0.0 (complex)
flat/345710536.png | should be 2.0 (flat) -> predicted as 1.0 (complex_flat)
complex_flat/345756925.png | should be 1.0 (complex_flat) -> predicted as 3.0 (gabled)
flat/345756942.png | should be 2.0 (flat) -> predicted as 3.0 (gabled)
flat/368366157.png | should be 2.0 (flat) -> predicted as 7.0 (skillion)
complex_flat/370191433.png | should be 1.0 (complex_flat) -> predicted as 0.0 (complex)
complex/427064235.png | should be 0.0 (complex) -> predicted as 2.0 (flat)
gabled/434915137.png | should be 3.0 (gabled) -> predicted as 0.0 (complex)
gabled/437073712.png | should be 3.0 (gabled) -> predicted as 2.0 (flat)
complex_flat/437205925.png | should be 1.0 (complex_flat) -> predicted as 2.0 (flat)
complex/443651783.png | should be 0.0 (complex) -> predicted as 2.0 (flat)
flat/452940513.png | should be 2.0 (flat) -> predicted as 7.0 (skillion)
flat/454297092.png | should be 2.0 (flat) -> predicted as 1.0 (complex_flat)
flat/462594022.png | should be 2.0 (flat) -> predicted as 1.0 (complex_flat)
complex_flat/466654263.png | should be 1.0 (complex_flat) -> predicted as 2.0 (flat)
flat/467541626.png | should be 2.0 (flat) -> predicted as 7.0 (skillion)
complex/478633274.png | should be 0.0 (complex) -> predicted as 2.0 (flat)



witten/skillion/72901669.png | should be 6.0 (skillion) -> predicted as 2.0 (gabled)
witten/half-hipped/74466604.png | should be 3.0 (half-hipped) -> predicted as 0.0 (complex)
witten/confused/74533433.png | should be 3.0 (half-hipped) -> predicted as 2.0 (gabled)
witten/pyramidal/74744681.png | should be 5.0 (pyramidal) -> predicted as 1.0 (flat)
witten/confused/74750013.png | should be 3.0 (half-hipped) -> predicted as 2.0 (gabled)
witten/confused/74851264.png | should be 3.0 (half-hipped) -> predicted as 2.0 (gabled)
witten/flat/74980742.png | should be 1.0 (flat) -> predicted as 6.0 (skillion)
witten/confused/75634810.png | should be 3.0 (half-hipped) -> predicted as 2.0 (gabled)
witten/confused/75639362.png | should be 3.0 (half-hipped) -> predicted as 2.0 (gabled)
witten/half-hipped/75665658.png | should be 3.0 (half-hipped) -> predicted as 4.0 (hipped)
witten/confused/75748317.png | should be 3.0 (half-hipped) -> predicted as 2.0 (gabled)
witten/complex/76580531.png | should be 3.0 (half-hipped) -> predicted as 2.0 (gabled)
witten/pyramidal/77404712.png | should be 5.0 (pyramidal) -> predicted as 4.0 (hipped)
witten/confused/77591933.png | should be 6.0 (skillion) -> predicted as 1.0 (flat)
witten/pyramidal/78241084.png | should be 5.0 (pyramidal) -> predicted as 0.0 (complex)
witten/half-hipped/79246784.png | should be 3.0 (half-hipped) -> predicted as 2.0 (gabled)
witten/complex/79398763.png | should be 3.0 (half-hipped) -> predicted as 2.0 (gabled)
witten/confused/79398771.png | should be 2.0 (gabled) -> predicted as 0.0 (complex)
witten/half-hipped/81661022.png | should be 3.0 (half-hipped) -> predicted as 2.0 (gabled)
witten/hipped/82411615.png | should be 4.0 (hipped) -> predicted as 3.0 (half-hipped)
witten/complex/82587985.png | should be 0.0 (complex) -> predicted as 3.0 (half-hipped)
witten/half-hipped/83122773.png | should be 3.0 (half-hipped) -> predicted as 0.0 (complex)
witten/hipped/83927528.png | should be 4.0 (hipped) -> predicted as 3.0 (half-hipped)
witten/hipped/83927618.png | should be 4.0 (hipped) -> predicted as 3.0 (half-hipped)
witten/hipped/85071154.png | should be 4.0 (hipped) -> predicted as 3.0 (half-hipped)
witten/hipped/85891631.png | should be 4.0 (hipped) -> predicted as 3.0 (half-hipped)
witten/complex/86152756.png | should be 0.0 (complex) -> predicted as 4.0 (hipped)
witten/skillion/87769720.png | should be 6.0 (skillion) -> predicted as 0.0 (complex)
witten/skillion/91883692.png | should be 6.0 (skillion) -> predicted as 1.0 (flat)
witten/pyramidal/92224678.png | should be 5.0 (pyramidal) -> predicted as 3.0 (half-hipped)
witten/pyramidal/93471408.png | should be 5.0 (pyramidal) -> predicted as 4.0 (hipped)
witten/hipped/93501238.png | should be 4.0 (hipped) -> predicted as 2.0 (gabled)
witten/confused/95193167.png | should be 3.0 (half-hipped) -> predicted as 2.0 (gabled)
witten/half-hipped/95733313.png | should be 3.0 (half-hipped) -> predicted as 4.0 (hipped)
witten/complex/95881920.png | should be 6.0 (skillion) -> predicted as 0.0 (complex)
witten/half-hipped/97164481.png | should be 3.0 (half-hipped) -> predicted as 2.0 (gabled)
witten/hipped/97164571.png | should be 4.0 (hipped) -> predicted as 3.0 (half-hipped)
witten/hipped/97173278.png | should be 4.0 (hipped) -> predicted as 5.0 (pyramidal)
witten/half-hipped/98893606.png | should be 3.0 (half-hipped) -> predicted as 2.0 (gabled)
witten/skillion/99470886.png | should be 6.0 (skillion) -> predicted as 1.0 (flat)
witten/half-hipped/99763264.png | should be 3.0 (half-hipped) -> predicted as 4.0 (hipped)
witten/gabled/100314702.png | should be 2.0 (gabled) -> predicted as 3.0 (half-hipped)
witten/hipped/100391609.png | should be 4.0 (hipped) -> predicted as 5.0 (pyramidal)
witten/confused/100595884.png | should be 2.0 (gabled) -> predicted as 4.0 (hipped)
witten/confused/100595887.png | should be 3.0 (half-hipped) -> predicted as 2.0 (gabled)
witten/half-hipped/100595892.png | should be 3.0 (half-hipped) -> predicted as 2.0 (gabled)
witten/complex/100595908.png | should be 3.0 (half-hipped) -> predicted as 0.0 (complex)
witten/confused/100595911.png | should be 3.0 (half-hipped) -> predicted as 2.0 (gabled)
witten/complex/115881138.png | should be 4.0 (hipped) -> predicted as 3.0 (half-hipped)
witten/half-hipped/229833853.png | should be 3.0 (half-hipped) -> predicted as 2.0 (gabled)
witten/hipped/245626945.png | should be 4.0 (hipped) -> predicted as 5.0 (pyramidal)
witten/confused/264198103.png | should be 4.0 (hipped) -> predicted as 1.0 (flat)
witten/confused/266954697.png | should be 4.0 (hipped) -> predicted as 1.0 (flat)
witten/hipped/298697705.png | should be 4.0 (hipped) -> predicted as 6.0 (skillion)
witten/confused/304448801.png | should be 4.0 (hipped) -> predicted as 1.0 (flat)
witten/complex/313624896.png | should be 2.0 (gabled) -> predicted as 0.0 (complex)
witten/confused/313624904.png | should be 2.0 (gabled) -> predicted as 6.0 (skillion)
witten/complex_flat/314500399.png | should be 1.0 (flat) -> predicted as 6.0 (skillion)
witten/complex_flat/314500412.png | should be 1.0 (flat) -> predicted as 0.0 (complex)
witten/complex/315140686.png | should be 0.0 (complex) -> predicted as 1.0 (flat)
witten/complex/316977079.png | should be 1.0 (flat) -> predicted as 0.0 (complex)
witten/complex/317107605.png | should be 2.0 (gabled) -> predicted as 0.0 (complex)
witten/complex/324272591.png | should be 2.0 (gabled) -> predicted as 0.0 (complex)
witten/complex/325823816.png | should be 2.0 (gabled) -> predicted as 0.0 (complex)
witten/skillion/325830282.png | should be 6.0 (skillion) -> predicted as 1.0 (flat)
witten/complex/330216737.png | should be 0.0 (complex) -> predicted as 2.0 (gabled)
witten/gabled/330494503.png | should be 2.0 (gabled) -> predicted as 1.0 (flat)
witten/confused/331219318.png | should be 2.0 (gabled) -> predicted as 1.0 (flat)
witten/confused/331219331.png | should be 3.0 (half-hipped) -> predicted as 2.0 (gabled)
witten/pyramidal/331219332.png | should be 5.0 (pyramidal) -> predicted as 4.0 (hipped)
witten/gabled/332753973.png | should be 2.0 (gabled) -> predicted as 3.0 (half-hipped)
witten/gabled/332753982.png | should be 2.0 (gabled) -> predicted as 0.0 (complex)
witten/gabled/333034677.png | should be 2.0 (gabled) -> predicted as 0.0 (complex)
witten/gabled/335363333.png | should be 2.0 (gabled) -> predicted as 3.0 (half-hipped)
witten/gabled/336847138.png | should be 2.0 (gabled) -> predicted as 3.0 (half-hipped)
witten/complex/336847236.png | should be 1.0 (flat) -> predicted as 0.0 (complex)
witten/complex/336861714.png | should be 1.0 (flat) -> predicted as 0.0 (complex)
witten/complex_flat/338046392.png | should be 1.0 (flat) -> predicted as 0.0 (complex)
witten/gabled/339324828.png | should be 2.0 (gabled) -> predicted as 3.0 (half-hipped)
witten/complex/339365468.png | should be 1.0 (flat) -> predicted as 0.0 (complex)
witten/complex_flat/339734656.png | should be 1.0 (flat) -> predicted as 0.0 (complex)
witten/complex/341925311.png | should be 1.0 (flat) -> predicted as 0.0 (complex)
witten/gabled/343214270.png | should be 2.0 (gabled) -> predicted as 0.0 (complex)
witten/complex/343453498.png | should be 0.0 (complex) -> predicted as 2.0 (gabled)
witten/complex/345400596.png | should be 1.0 (flat) -> predicted as 0.0 (complex)
witten/complex_flat/345710535.png | should be 1.0 (flat) -> predicted as 0.0 (complex)
witten/flat/345756930.png | should be 1.0 (flat) -> predicted as 6.0 (skillion)
witten/gabled/345756937.png | should be 2.0 (gabled) -> predicted as 6.0 (skillion)
witten/flat/345756942.png | should be 1.0 (flat) -> predicted as 2.0 (gabled)
witten/complex/384694994.png | should be 1.0 (flat) -> predicted as 6.0 (skillion)
witten/complex/397709382.png | should be 1.0 (flat) -> predicted as 0.0 (complex)
witten/flat/422972052.png | should be 1.0 (flat) -> predicted as 6.0 (skillion)
witten/confused/427272133.png | should be 1.0 (flat) -> predicted as 5.0 (pyramidal)
witten/complex/431634971.png | should be 2.0 (gabled) -> predicted as 0.0 (complex)
witten/complex/431634974.png | should be 2.0 (gabled) -> predicted as 0.0 (complex)
witten/flat/432501199.png | should be 1.0 (flat) -> predicted as 0.0 (complex)
witten/complex/435471549.png | should be 1.0 (flat) -> predicted as 0.0 (complex)
witten/flat/436536464.png | should be 1.0 (flat) -> predicted as 0.0 (complex)
witten/flat/437031972.png | should be 1.0 (flat) -> predicted as 0.0 (complex)
witten/gabled/437073712.png | should be 2.0 (gabled) -> predicted as 1.0 (flat)
witten/complex/453315248.png | should be 1.0 (flat) -> predicted as 0.0 (complex)
witten/flat/454710300.png | should be 1.0 (flat) -> predicted as 6.0 (skillion)
witten/complex/464452740.png | should be 1.0 (flat) -> predicted as 0.0 (complex)
witten/flat/467541626.png | should be 1.0 (flat) -> predicted as 6.0 (skillion)
witten/gabled/472795516.png | should be 2.0 (gabled) -> predicted as 3.0 (half-hipped)
witten/gabled/474028649.png | should be 2.0 (gabled) -> predicted as 3.0 (half-hipped)
witten/complex_flat/493226486.png | should be 1.0 (flat) -> predicted as 6.0 (skillion)
newyork/complex_flat/435646.png | should be 1.0 (flat) -> predicted as 0.0 (complex)
newyork/complex/441483.png | should be 0.0 (complex) -> predicted as 1.0 (flat)
newyork/confused/447522.png | should be 0.0 (complex) -> predicted as 1.0 (flat)
newyork/complex/448539.png | should be 1.0 (flat) -> predicted as 0.0 (complex)
newyork/complex_flat/465507.png | should be 1.0 (flat) -> predicted as 0.0 (complex)
newyork/complex/474792.png | should be 0.0 (complex) -> predicted as 1.0 (flat)
newyork/complex_flat/481051.png | should be 1.0 (flat) -> predicted as 0.0 (complex)
newyork/complex/482087.png | should be 1.0 (flat) -> predicted as 0.0 (complex)
newyork/complex_flat/528213.png | should be 1.0 (flat) -> predicted as 0.0 (complex)
newyork/complex/530166.png | should be 1.0 (flat) -> predicted as 0.0 (complex)
newyork/complex_flat/538440.png | should be 1.0 (flat) -> predicted as 0.0 (complex)
newyork/hipped/556382.png | should be 4.0 (hipped) -> predicted as 0.0 (complex)
newyork/complex_flat/591075.png | should be 1.0 (flat) -> predicted as 0.0 (complex)
newyork/complex/594067.png | should be 0.0 (complex) -> predicted as 1.0 (flat)
newyork/complex/611951.png | should be 0.0 (complex) -> predicted as 1.0 (flat)
newyork/complex/618537.png | should be 1.0 (flat) -> predicted as 0.0 (complex)
newyork/complex/618759.png | should be 0.0 (complex) -> predicted as 1.0 (flat)
newyork/complex_flat/627705.png | should be 1.0 (flat) -> predicted as 0.0 (complex)
newyork/complex/667341.png | should be 1.0 (flat) -> predicted as 0.0 (complex)
newyork/complex_flat/695764.png | should be 1.0 (flat) -> predicted as 0.0 (complex)
newyork/complex_flat/710386.png | should be 1.0 (flat) -> predicted as 0.0 (complex)
newyork/complex/717898.png | should be 0.0 (complex) -> predicted as 1.0 (flat)
newyork/complex/731819.png | should be 0.0 (complex) -> predicted as 1.0 (flat)
newyork/complex/734469.png | should be 0.0 (complex) -> predicted as 1.0 (flat)
newyork/complex/761776.png | should be 1.0 (flat) -> predicted as 0.0 (complex)
newyork/complex_flat/772625.png | should be 1.0 (flat) -> predicted as 0.0 (complex)
newyork/complex/777017.png | should be 1.0 (flat) -> predicted as 0.0 (complex)
newyork/complex_flat/793602.png | should be 1.0 (flat) -> predicted as 0.0 (complex)
newyork/complex/795655.png | should be 0.0 (complex) -> predicted as 1.0 (flat)
newyork/complex_flat/817582.png | should be 1.0 (flat) -> predicted as 0.0 (complex)
newyork/complex/830401.png | should be 1.0 (flat) -> predicted as 0.0 (complex)
newyork/complex_flat/839323.png | should be 1.0 (flat) -> predicted as 0.0 (complex)
newyork/complex/841266.png | should be 0.0 (complex) -> predicted as 1.0 (flat)
newyork/complex/937357.png | should be 1.0 (flat) -> predicted as 0.0 (complex)
newyork/complex_flat/989350.png | should be 1.0 (flat) -> predicted as 0.0 (complex)
newyork/complex/1073898.png | should be 1.0 (flat) -> predicted as 0.0 (complex)
newyork/complex/1079428.png | should be 1.0 (flat) -> predicted as 0.0 (complex)
newyork/complex/1107695.png | should be 1.0 (flat) -> predicted as 0.0 (complex)