{
  "name": "multidataset_predict_inceptionresnet",
  "defaults": {
    "data_dir": "F:/jeremy/roof_learning_journal/roof_pictures/",
    "repeat": 1,
    "dual_input": false,
    "classes": ["complex", "complex_flat", "flat", "gabled", "half-hipped", "hipped", "pyramidal", "skillion"],
    "csv": "F:/jeremy/roof_learning_journal/roof_pictures/witten_final_photos.csv",
    "continue_tr": true,
    "verbose": false,
    "train_val_test": "val"
  },
  "test_sets": [
    {
      "active": true,
      "name": "inceptionresnetv2_rgb_witten_witten",
      "type": "val_acc",
      "data_sub_dir": "rgb",
      "model": "inceptionresnetv2",
      "dataset": "witten",
      "csv": "witten_final_photos.csv",
      "fc1": 100,
      "fc2": 100,
      "weights": ["F:/jeremy/roof_learning_journal/results/models/09_06_2018/fine-tuned-inceptionresnetv2_dataset_witten_lr_0.001_fc1_100_fc2_100_layer_11_run_1_rgb_classmodifier_none-rgb-weights.h5"],
      "freeze_layers_number": 11
    },
    {
      "active": true,
      "name": "inceptionresnetv2_rgb_witten_combined",
      "type": "val_acc",
      "data_sub_dir": "rgb",
      "model": "inceptionresnetv2",
      "dataset": "witten",
      "csv": "witten_final_photos.csv",
      "fc1": 100,
      "fc2": 100,
      "weights": ["F:/jeremy/roof_learning_journal/results/models/09_06_2018/fine-tuned-inceptionresnetv2_dataset_combined_lr_0.001_fc1_100_fc2_100_layer_11_run_0_rgb_classmodifier_none-rgb-weights.h5"],
      "freeze_layers_number": 11
    },
    {
      "active": true,
      "name": "inceptionresnetv2_rgb_newyork_newyork",
      "type": "val_acc",
      "data_sub_dir": "rgb",
      "model": "inceptionresnetv2",
      "dataset": "newyork",
      "csv": "newyork_final_photos.csv",
      "fc1": 100,
      "fc2": 100,
      "classes": [
        "complex",
        "complex_flat",
        "flat"
      ],
      "weights": ["F:/jeremy/roof_learning_journal/results/models/09_06_2018/fine-tuned-inceptionresnetv2_dataset_newyork_lr_0.001_fc1_100_fc2_100_layer_11_run_1_rgb_classmodifier_none-rgb-weights.h5"],
      "freeze_layers_number": 11
    },
    {
      "active": true,
      "name": "inceptionresnetv2_rgb_newyork_combined",
      "type": "val_acc",
      "data_sub_dir": "rgb",
      "model": "inceptionresnetv2",
      "dataset": "newyork",
      "csv": "newyork_final_photos.csv",
      "fc1": 100,
      "fc2": 100,
      "weights": ["F:/jeremy/roof_learning_journal/results/models/09_06_2018/fine-tuned-inceptionresnetv2_dataset_combined_lr_0.001_fc1_100_fc2_100_layer_11_run_0_rgb_classmodifier_none-rgb-weights.h5"],
      "freeze_layers_number": 11
    }
    
  ]
}