{
    "name": "predict_cnn",
    "defaults": {
      "data_dir": "F:/jeremy/roof_learning_journal/roof_pictures/",
      "repeat": 1,
      "dual_input": false,
      "classes": ["complex", "complex_flat", "flat", "gabled", "half-hipped", "hipped", "pyramidal", "skillion"],
      "csv": "F:/jeremy/roof_learning_journal/roof_pictures/combined_final_photos_dual.csv",
      "continue_tr": true,
      "verbose": false,
      "train_val_test": "test"
    },
    "test_sets": [
      {
        "active": true,
        "name": "resnet50_lidar_combined_combined",
        "type": "test_acc",
        "data_sub_dir": "lidar",
        "model": "resnet50",
        "dataset": "combined",
        "fc1": 0,
        "fc2": 100,
        "weights": ["F:/jeremy/roof_learning_journal/results/models/09_06_2018/fine-tuned-resnet50_dataset_combined_lr_0.001_fc1_0_fc2_100_layer_80_run_0_lidar_classmodifier_none-lidar-weights.h5"],
        "freeze_layers_number": 80
      },
      {
        "active": true,
        "name": "inceptionresnetv2_rgb_combined_combined",
        "type": "test_acc",
        "data_sub_dir": "rgb",
        "model": "inceptionresnetv2",
        "dataset": "combined",
        "fc1": 100,
        "fc2": 100,
        "weights": ["F:/jeremy/roof_learning_journal/results/models/09_06_2018/fine-tuned-inceptionresnetv2_dataset_combined_lr_0.001_fc1_100_fc2_100_layer_11_run_0_rgb_classmodifier_none-rgb-weights.h5"],
        "freeze_layers_number": 11
      },
      {
        "active": false,
        "fc1": 0,
        "output": "resnet50_test",
        "type": "test_acc",
        "data_sub_dir": "lidar",
        "model": "resnet50",
        "csv": "F:/jeremy/roof_learning_journal/roof_pictures/combined_final_photos.csv",
        "weights": ["trained/multi/fine-tuned-resnet50_dataset_combined_lr_0.001_fc1_0_fc2_100_layer_80_run_0_lidar_classmodifier_collapseflat-lidar-weights.h5"],
        "dataset": "combined",
        "freeze_layers_number": 39,
        "class_modifier": "collapseflat"
      },
      {
        "active": false,
        "fc1": 0,
        "output": "resnet50_test",
        "type": "test_acc",
        "data_sub_dir": "lidar",
        "model": "resnet50",
        "weights": ["trained/multi/fine-tuned-resnet50_dataset_witten__lr_0.001_fc1_0_fc2_100_layer_39_run_0_lidar-lidar-weights.h5"],
        "classes": ["complex", "complex_flat", "flat"],
        "csv": "F:/jeremy/roof_learning_journal/roof_pictures/newyork_final_photos.csv",
        "dataset": "newyork"
      }
      
    ]
  }