{
  "name": "inceptionv3_single",
  "defaults": {
    "data_dir": "../data/roof_pictures",
    "repeat": 1,
    "nb_epoch": 1000,
    "dual_input": false,
    "lr": 0.001,
    "classes": [
      "complex",
      "complex_flat",
      "flat",
      "gabled",
      "half-hipped",
      "hipped",
      "pyramidal",
      "skillion"
    ],
    "dataset": "witten"
  },
  "test_sets": [
    {
      "active": true,
      "csv": "combined_final_photos.csv",
      "dataset": "combined",
      "model": "inceptionv3",
      "class_modifier": "none",
      "hyperparameters": {
        "data_sub_dir": ["rgb", "lidar"],
        "lr": [0.001],
        "fc1": [0, 100],
        "fc2": [100],
        "freeze_layers_number": [11, 18, 41]
      }
    },
    {
      "active": false,
      "csv": "F:/jeremy/roof_learning_journal/roof_pictures/witten_final_photos.csv",
      "dataset": "witten",
      "model": "inceptionv3",
      "hyperparameters": {
        "data_sub_dir": ["rgb", "lidar"],
        "lr": [0.001],
        "fc1": [0, 100],
        "fc2": [100],
        "freeze_layers_number": [11, 18, 41]
      }
    },
    {
      "active": false,
      "csv": "F:/jeremy/roof_learning_journal/roof_pictures/newyork_final_photos.csv",
      "dataset": "newyork",
      "model": "inceptionv3",
      "classes": [
        "complex",
        "complex_flat",
        "flat"
      ],
      "hyperparameters": {
        "data_sub_dir": ["rgb", "lidar"],
        "lr": [0.001],
        "fc1": [0, 100],
        "fc2": [100],
        "freeze_layers_number": [11, 18, 41]
      }
    }
  ]
}